Chapter 6 Differential expression analysis | Omics Data Analysis
…
► Solution

summary(res$padj)

##    Min. 1st Qu.  Median    Mean 3rd Qu.    Max.    NA's 
##    0.00    0.02    0.33    0.40    0.73    1.00   37882

Let’s filter genes with no padjusted values

res_tbl <- as_tibble(res, rownames = "ENSEMBL")
res_tbl %>% 
  filter(is.na(padj))

## # A tibble: 37,882 x 7
##    ENSEMBL         baseMean log2FoldChange lfcSE   stat pvalue  padj
##    <chr>              <dbl>          <dbl> <dbl>  <dbl>  <dbl> <dbl>
##  1 ENSG00000223972   0              NA     NA    NA     NA        NA
##  2 ENSG00000243485   0              NA     NA    NA     NA        NA
##  3 ENSG00000284332   0              NA     NA    NA     NA        NA
##  4 ENSG00000237613   0              NA     NA    NA     NA        NA
##  5 ENSG00000268020   0              NA     NA    NA     NA        NA
##  6 ENSG00000240361   0.159           0      4.41  0      1        NA
##  7 ENSG00000186092   0.0958          0      4.41  0      1        NA
##  8 ENSG00000238009   1.38            0.907  2.03  0.447  0.655    NA
##  9 ENSG00000239945   0              NA     NA    NA     NA        NA
## 10 ENSG00000239906   0.0793          0      4.41  0      1        NA
## # … with 37,872 more rows
…
