Chapter 6 Enrichment analyses | Omics Data Analysis
…
library("GO.db")
library("org.Hs.eg.db")
GO_0005925 <- AnnotationDbi::select(org.Hs.eg.db,
                                    keys = "GO:0005925",
                                    columns = c("ENTREZID", "SYMBOL"),
                                    keytype = "GO") %>%
    as_tibble %>%
    filter(!duplicated(ENTREZID))

## 'select()' returned 1:many mapping between keys and columns

GO_0005925

## # A tibble: 421 × 5
##    GO         EVIDENCE ONTOLOGY ENTREZID SYMBOL
##    <chr>      <chr>    <chr>    <chr>    <chr> 
##  1 GO:0005925 HDA      CC       60       ACTB  
##  2 GO:0005925 HDA      CC       70       ACTC1 
##  3 GO:0005925 ISS      CC       71       ACTG1 
##  4 GO:0005925 HDA      CC       81       ACTN4 
##  5 GO:0005925 HDA      CC       87       ACTN1 
##  6 GO:0005925 IMP      CC       88       ACTN2 
##  7 GO:0005925 IMP      CC       89       ACTN3 
##  8 GO:0005925 HDA      CC       102      ADAM10
##  9 GO:0005925 HDA      CC       118      ADD1  
## 10 GO:0005925 HDA      CC       214      ALCAM 
## # ℹ 411 more rows
…
► Solution

GO_0005813 <- AnnotationDbi::select(org.Hs.eg.db,
                     keys = "GO:0005813",
                     columns = c("ENTREZID", "SYMBOL"),
                     keytype = "GO") %>%
    as_tibble %>%
    filter(!duplicated(ENTREZID))

## 'select()' returned 1:many mapping between keys and columns

GO_0005813

## # A tibble: 637 × 5
##    GO         EVIDENCE ONTOLOGY ENTREZID SYMBOL
##    <chr>      <chr>    <chr>    <chr>    <chr> 
##  1 GO:0005813 IDA      CC       35       ACADS 
##  2 GO:0005813 IDA      CC       324      APC   
##  3 GO:0005813 IDA      CC       328      APEX1 
##  4 GO:0005813 IDA      CC       402      ARL2  
##  5 GO:0005813 IDA      CC       403      ARL3  
##  6 GO:0005813 IDA      CC       468      ATF4  
##  7 GO:0005813 ISS      CC       472      ATM   
##  8 GO:0005813 IBA      CC       582      BBS1  
##  9 GO:0005813 IDA      CC       585      BBS4  
## 10 GO:0005813 IBA      CC       595      CCND1 
## # ℹ 627 more rows
…
We will focus on the genes that have an adjusted p-value (those that
have been tested) and that have unique ENTREZ gene identifiers.

res_tbl <- res_tbl %>%
    filter(!is.na(ENTREZID),
           !is.na(padj),
           !duplicated(ENTREZID)) %>%
    mutate(ENTREZID = as.character(ENTREZID))

res_tbl

## # A tibble: 14,014 × 9
##    ENSEMBL         gene   ENTREZID baseMean log2FoldChange lfcSE  stat    pvalue
##    <chr>           <chr>  <chr>       <dbl>          <dbl> <dbl> <dbl>     <dbl>
##  1 ENSG00000101856 PGRMC1 10857       1209.          -4.67 0.178 -26.2 8.24e-152
##  2 ENSG00000177494 ZBED2  79413        277.           6.25 0.351  17.8 6.25e- 71
##  3 ENSG00000136159 NUDT15 55270        630.           2.24 0.154  14.6 3.32e- 48
##  4 ENSG00000175315 CST6   1474         220.           4.29 0.300  14.3 2.20e- 46
##  5 ENSG00000128245 YWHAH  7533        2692.           2.05 0.144  14.2 5.64e- 46
##  6 ENSG00000113272 THG1L  54974        381.           2.33 0.171  13.6 3.45e- 42
##  7 ENSG00000213853 EMP2   2013         506.           2.53 0.191  13.2 8.45e- 40
##  8 ENSG00000115107 STEAP3 55240        193.           3.44 0.271  12.7 7.18e- 37
##  9 ENSG00000008513 ST3GA… 6482        1419.           3.00 0.240  12.5 6.39e- 36
## 10 ENSG00000105855 ITGB8  3696        6134.           2.18 0.178  12.2 2.26e- 34
## # ℹ 14,004 more rows
## # ℹ 1 more variable: padj <dbl>
…
Gene set enrichment analysis refers to a broad family of tests. Here,
we will define the principles based on (Subramanian et al. ⊕2005Subramanian, A, P Tamayo, V K Mootha, S Mukherjee, B L Ebert, M A Gillette, A Paulovich, et al. 2005. “Gene Set Enrichment Analysis: A Knowledge-Based Approach for Interpreting Genome-Wide Expression Profiles.” Proc Natl Acad Sci U S A 102 (43): 15545–50. https://doi.org/10.1073/pnas.0506580102.), keeping in
mind that the exact implementation will differ in different tools.

The major advantage of GSEA approaches is that they don’t rely on
defining DE genes. The first step is to order the genes of
interest based on the statistics used; here, we will use the
p-values. This is already the case for our res_tbl table. We also
need to know which genes are in our set of interest.

res_tbl$inGO <- res_tbl$ENTREZID %in% GO_0005925$ENTREZID
dplyr::select(res_tbl, ENTREZID, padj, inGO)

## # A tibble: 14,014 × 3
##    ENTREZID      padj inGO 
##    <chr>        <dbl> <lgl>
##  1 10857    1.36e-147 FALSE
##  2 79413    5.17e- 67 FALSE
##  3 55270    1.83e- 44 FALSE
##  4 1474     9.11e- 43 FALSE
##  5 7533     1.87e- 42 FALSE
##  6 54974    9.51e- 39 FALSE
##  7 2013     2.00e- 36 FALSE
##  8 55240    1.48e- 33 FALSE
##  9 6482     1.17e- 32 FALSE
## 10 3696     3.75e- 31 TRUE 
## # ℹ 14,004 more rows
…
res_tmp <- res_tmp %>%
    mutate(score = ifelse(inGO, set_ratio(res_tmp), -1)) %>%
    mutate(score = cumsum(score))

res_tmp

## # A tibble: 14,012 × 5
##    ENSEMBL         ENTREZID      padj inGO  score
##    <chr>           <chr>        <dbl> <lgl> <dbl>
##  1 ENSG00000101856 10857    1.36e-147 FALSE  -1  
##  2 ENSG00000177494 79413    5.17e- 67 FALSE  -2  
##  3 ENSG00000136159 55270    1.83e- 44 FALSE  -3  
##  4 ENSG00000175315 1474     9.11e- 43 FALSE  -4  
##  5 ENSG00000128245 7533     1.87e- 42 FALSE  -5  
##  6 ENSG00000113272 54974    9.51e- 39 FALSE  -6  
##  7 ENSG00000213853 2013     2.00e- 36 FALSE  -7  
##  8 ENSG00000115107 55240    1.48e- 33 FALSE  -8  
##  9 ENSG00000008513 6482     1.17e- 32 FALSE  -9  
## 10 ENSG00000105855 3696     3.75e- 31 TRUE   28.1
## # ℹ 14,002 more rows
…
6.5.1 ORA using GO setsCopy link

de_genes <- res_tbl$ENTREZID[res_tbl$padj < 0.05]

go_ora <- enrichGO(gene = de_genes,
                   universe = res_tbl$ENTREZID,
                   OrgDb = org.Hs.eg.db,
                   ont = "CC",
                   readable = TRUE) %>%
    as_tibble
go_ora

## # A tibble: 21 × 9
##    ID       Description GeneRatio BgRatio   pvalue p.adjust  qvalue geneID Count
##    <chr>    <chr>       <chr>     <chr>      <dbl>    <dbl>   <dbl> <chr>  <int>
##  1 GO:0022… cytosolic … 70/3862   113/12… 4.79e-11  3.23e-8 3.04e-8 RPL27…    70
##  2 GO:0022… cytosolic … 40/3862   56/120… 1.52e- 9  5.12e-7 4.83e-7 RPL27…    40
##  3 GO:0044… ribosomal … 92/3862   185/12… 3.30e- 7  7.40e-5 6.96e-5 DAP3/…    92
##  4 GO:0005… ribosome    105/3862  226/12… 3.20e- 6  5.39e-4 5.08e-4 DAP3/…   105
##  5 GO:0005… focal adhe… 158/3862  368/12… 4.93e- 6  6.63e-4 6.24e-4 ITGB8…   158
##  6 GO:0030… cell-subst… 159/3862  374/12… 9.01e- 6  1.01e-3 9.52e-4 ITGB8…   159
##  7 GO:0015… large ribo… 57/3862   114/12… 4.48e- 5  4.31e-3 4.06e-3 MRPL1…    57
##  8 GO:0098… neuron to … 103/3862  235/12… 8.04e- 5  6.76e-3 6.37e-3 YWHAH…   103
##  9 GO:0009… cell surfa… 176/3862  435/12… 9.04e- 5  6.76e-3 6.37e-3 EMP2/…   176
## 10 GO:0099… postsynapt… 95/3862   215/12… 1.04e- 4  6.86e-3 6.46e-3 NETO2…    95
## # ℹ 11 more rows
…
ordered_genes <- abs(res_tbl$stat)
names(ordered_genes) <- res_tbl$ENTREZID
ordered_genes <- sort(ordered_genes, decreasing = TRUE)

go_gsea <- gseGO(gene = ordered_genes,
                 OrgDb = org.Hs.eg.db,
                 scoreType = "pos") %>%
    as_tibble
go_gsea

## # A tibble: 603 × 11
##    ID        Description setSize enrichmentScore   NES   pvalue p.adjust  qvalue
##    <chr>     <chr>         <int>           <dbl> <dbl>    <dbl>    <dbl>   <dbl>
##  1 GO:00308… epithelial…     441           0.479  1.40 1.11e-10  5.85e-7 4.46e-7
##  2 GO:00015… blood vess…     493           0.459  1.34 4.34e- 9  1.15e-5 8.73e-6
##  3 GO:00485… blood vess…     434           0.460  1.34 1.99e- 8  3.50e-5 2.66e-5
##  4 GO:00343… cell junct…     499           0.448  1.31 5.93e- 8  7.82e-5 5.96e-5
##  5 GO:00015… angiogenes…     376           0.463  1.35 1.00e- 7  1.06e-4 8.06e-5
##  6 GO:00435… regulation…     394           0.457  1.33 1.21e- 7  1.07e-4 8.13e-5
##  7 GO:00713… cellular r…     472           0.447  1.31 1.53e- 7  1.15e-4 8.79e-5
##  8 GO:00708… response t…     493           0.445  1.30 1.99e- 7  1.31e-4 1.00e-4
##  9 GO:00430… positive r…     383           0.457  1.33 3.33e- 7  1.80e-4 1.37e-4
## 10 GO:00455… negative r…     426           0.450  1.31 3.41e- 7  1.80e-4 1.37e-4
## # ℹ 593 more rows
## # ℹ 3 more variables: rank <int>, leading_edge <chr>, core_enrichment <chr>
…
## GSEA only
filter(go_cc, is.na(p.adjust.x))

## # A tibble: 178 × 3
##    ID         p.adjust.x  p.adjust.y
##    <chr>           <dbl>       <dbl>
##  1 GO:0030855         NA 0.000000585
##  2 GO:0001568         NA 0.0000115  
##  3 GO:0048514         NA 0.0000350  
##  4 GO:0034330         NA 0.0000782  
##  5 GO:0001525         NA 0.000106   
##  6 GO:0043549         NA 0.000107   
##  7 GO:0071363         NA 0.000115   
##  8 GO:0070848         NA 0.000131   
##  9 GO:0043065         NA 0.000180   
## 10 GO:0045596         NA 0.000180   
## # ℹ 168 more rows
…
Perform ORA and GSEA analysis using the KEGG set.

6.5.4 Using MSigDb setsCopy link

We will use the hallmark gene set as an example here, but any set
described above can be utilised.

library("msigdbr")
msig_h <- msigdbr(species = "Homo sapiens", category = "H") %>%
    dplyr::select(gs_name, entrez_gene) %>%
    dplyr::rename(ont = gs_name, gene = entrez_gene)
msig_h

## # A tibble: 8,209 × 2
##    ont                    gene
##    <chr>                 <int>
##  1 HALLMARK_ADIPOGENESIS    19
##  2 HALLMARK_ADIPOGENESIS 11194
##  3 HALLMARK_ADIPOGENESIS 10449
##  4 HALLMARK_ADIPOGENESIS    33
##  5 HALLMARK_ADIPOGENESIS    34
##  6 HALLMARK_ADIPOGENESIS    35
##  7 HALLMARK_ADIPOGENESIS    47
##  8 HALLMARK_ADIPOGENESIS    50
##  9 HALLMARK_ADIPOGENESIS    51
## 10 HALLMARK_ADIPOGENESIS   112
## # ℹ 8,199 more rows
…
